// Jest Snapshot v1, https://goo.gl/fbAQLP

exports[`MeetingLink renders 1`] = `
<div
  className="meetingLink"
>
  <span>
    t(MeetingLink.join-link-label)
     
    <a
      href="http://example.com/#test-meeting-url"
    >
      http://example.com/#test-meeting-url
    </a>
  </span>
   
  <span>
    t(MeetingLink.expires-message, {"expiresIn":54321})
  </span>
</div>
`;

exports[`MeetingLink renders nothing when there is no meeting 1`] = `null`;
