<svg viewBox="0 0 665 135"
  xmlns="http://www.w3.org/2000/svg"
  xmlns:xlink="http://www.w3.org/1999/xlink">
  <defs>
    <path id="slashPath" d="M 570 22 l -1 5 m -8 48 l -1 5" stroke-linecap="round" />
    <path id="logoPath" stroke-linecap="round" fill-rule="evenodd" d="M 79.004 13.059 L 79.004 68.559 A 9.08 9.08 0 0 1 76.638 75.899 A 4.38 4.38 0 0 1 75.204 76.659 Q 73.304 77.259 70.404 77.259 Q 67.504 77.259 65.804 76.759 Q 64.104 76.259 63.204 75.559 Q 62.304 74.859 61.804 73.559 Q 61.304 71.859 61.304 68.359 L 61.304 34.859 Q 58.804 37.959 54.004 44.709 Q 49.204 51.459 47.904 53.159 Q 46.604 54.859 46.104 55.509 Q 45.604 56.159 43.654 57.309 Q 41.704 58.459 39.454 58.459 Q 37.204 58.459 35.354 57.409 Q 33.504 56.359 32.704 55.359 L 31.904 54.259 Q 29.904 51.759 24.004 43.609 Q 18.104 35.459 17.604 34.859 L 17.604 68.559 Q 17.604 70.859 17.454 72.009 Q 17.304 73.159 16.504 74.559 A 7.209 7.209 0 0 1 10.204 77.217 A 25.417 25.417 0 0 1 8.704 77.259 A 9.779 9.779 0 0 1 1.685 75.337 A 3.658 3.658 0 0 1 1.104 74.559 Q 0.304 73.159 0.154 71.959 Q 0.004 70.759 0.004 68.359 L 0.004 12.859 Q 0.004 10.559 0.154 9.409 Q 0.304 8.259 1.104 6.759 Q 2.604 4.159 8.904 4.159 Q 11.604 4.159 13.554 4.809 Q 15.504 5.459 16.104 6.159 L 16.704 6.759 L 39.404 36.559 Q 56.379 14.092 62.087 6.88 A 297.199 297.199 0 0 1 62.104 6.859 Q 63.804 4.159 70.154 4.159 Q 76.504 4.159 77.904 6.859 Q 78.704 8.359 78.854 9.559 Q 79.004 10.759 79.004 13.059 Z M 461.204 58.159 L 463.004 56.859 Q 466.404 54.859 467.804 54.859 A 7.88 7.88 0 0 1 473.391 58.846 A 28.4 28.4 0 0 1 474.504 60.459 Q 476.704 63.959 476.704 66.059 Q 476.704 68.159 475.354 69.559 Q 474.004 70.959 472.204 72.059 Q 470.404 73.159 468.754 74.159 Q 467.104 75.159 462.004 76.759 Q 456.904 78.359 452.154 78.359 Q 447.404 78.359 442.554 77.109 Q 437.704 75.859 432.554 72.909 Q 427.404 69.959 423.304 65.709 Q 419.204 61.459 416.554 54.809 Q 413.904 48.159 413.904 40.359 Q 413.904 32.559 416.504 26.209 Q 419.104 19.859 423.154 15.709 Q 427.204 11.559 432.404 8.759 Q 442.204 3.359 452.104 3.359 Q 456.804 3.359 461.654 4.809 Q 466.504 6.259 469.004 7.759 L 471.404 9.159 Q 473.204 10.259 474.204 10.959 Q 476.804 13.059 476.804 15.709 Q 476.804 18.359 474.704 21.259 A 13.456 13.456 0 0 1 469.022 26.428 A 4.057 4.057 0 0 1 467.704 26.659 Q 465.904 26.659 462.604 24.459 Q 458.404 21.059 451.404 21.059 Q 444.904 21.059 438.604 25.559 Q 435.604 27.759 433.604 31.759 Q 431.604 35.759 431.604 40.809 Q 431.604 45.859 433.604 49.859 Q 435.604 53.859 438.704 56.159 Q 444.804 60.559 451.404 60.559 Q 454.504 60.559 457.254 59.759 Q 460.004 58.959 461.204 58.159 Z M 365.004 73.759 L 365.004 70.759 Q 361.204 75.759 352.904 75.759 Q 344.604 75.759 337.354 68.109 Q 330.104 60.459 330.104 50.259 Q 330.104 40.059 337.404 32.359 Q 344.704 24.659 353.404 24.659 Q 356.804 24.659 359.604 25.909 Q 362.404 27.159 363.454 28.209 Q 364.504 29.259 365.104 30.159 Q 365.404 27.359 367.154 25.909 Q 368.904 24.459 372.804 24.459 Q 376.704 24.459 378.504 25.059 Q 380.304 25.659 381.054 27.109 Q 381.804 28.559 381.954 29.659 Q 382.104 30.759 382.104 33.059 L 382.104 74.459 Q 382.104 85.959 374.104 93.009 Q 366.104 100.059 356.104 100.059 Q 348.504 100.059 341.604 96.359 Q 334.704 92.659 334.704 89.659 Q 334.704 85.759 337.704 82.759 Q 339.604 80.659 340.654 79.859 Q 341.704 79.059 343.104 79.059 Q 344.504 79.059 346.004 80.259 Q 350.804 83.959 356.404 83.959 Q 360.204 83.959 362.604 80.959 Q 365.004 77.959 365.004 73.759 Z M 323.604 50.959 L 323.604 68.559 Q 323.604 70.859 323.454 72.009 Q 323.304 73.159 322.604 74.559 A 6.957 6.957 0 0 1 316.416 77.212 A 25.881 25.881 0 0 1 314.804 77.259 Q 307.704 77.259 306.604 73.559 Q 306.004 71.859 306.004 68.459 L 306.004 50.859 Q 306.004 46.759 303.654 44.459 Q 301.304 42.159 297.354 42.159 Q 293.404 42.159 290.954 44.559 Q 288.504 46.959 288.504 50.859 L 288.504 68.559 Q 288.504 70.859 288.354 72.009 Q 288.204 73.159 287.404 74.559 Q 286.104 77.259 279.704 77.259 Q 273.404 77.259 272.004 74.559 Q 271.304 73.059 271.154 71.909 Q 271.004 70.759 271.004 68.459 L 271.004 33.059 Q 271.004 30.859 271.154 29.709 Q 271.304 28.559 272.104 27.159 A 7.011 7.011 0 0 1 278.129 24.709 A 26.842 26.842 0 0 1 279.804 24.659 Q 285.904 24.659 287.304 26.959 Q 288.304 28.659 288.304 31.059 Q 288.704 30.359 290.104 29.059 Q 291.504 27.759 292.804 26.959 Q 296.204 24.659 300.304 24.659 Q 310.304 24.659 316.954 32.309 Q 323.604 39.959 323.604 50.959 Z M 543.704 72.659 Q 541.804 71.459 541.804 68.859 A 12.713 12.713 0 0 1 544.312 62.852 A 46.126 46.126 0 0 1 545.604 60.959 Q 546.704 59.259 549.154 59.259 Q 551.604 59.259 555.804 61.709 Q 560.004 64.159 563.404 64.159 A 8.921 8.921 0 0 0 568.937 62.999 A 1.604 1.604 0 0 0 569.504 61.759 Q 569.504 59.859 562.804 58.959 Q 556.504 58.059 550.304 54.259 Q 547.404 52.459 545.504 48.609 Q 543.604 44.759 543.604 39.459 A 14.772 14.772 0 0 1 558.485 24.126 A 45.816 45.816 0 0 1 565.304 23.659 Q 572.404 23.659 579.904 27.059 Q 583.404 28.659 583.404 31.059 Q 583.404 33.459 581.204 36.959 Q 579.004 40.459 576.704 40.459 Q 575.504 40.459 572.254 38.959 Q 569.004 37.459 565.204 37.459 A 8.861 8.861 0 0 0 559.824 38.547 A 1.432 1.432 0 0 0 559.304 39.659 A 4.467 4.467 0 0 0 563.75 43.138 A 23.86 23.86 0 0 0 566.104 43.559 Q 572.704 44.259 578.904 47.359 Q 581.804 48.759 583.754 52.209 Q 585.704 55.659 585.704 60.859 Q 585.704 66.059 583.754 69.709 Q 581.804 73.359 578.304 75.159 Q 571.904 78.259 562.254 78.259 Q 552.604 78.259 543.704 72.659 Z M 128.004 56.759 L 104.304 56.759 Q 104.304 59.559 107.604 61.459 Q 110.904 63.359 114.204 63.359 Q 120.004 63.359 123.304 62.159 L 124.404 61.759 Q 126.804 60.659 128.404 60.659 Q 131.604 60.659 133.904 65.159 Q 135.204 67.859 135.204 69.759 A 7.932 7.932 0 0 1 128.323 77.001 Q 123.914 78.4 116.68 78.619 A 91.989 91.989 0 0 1 113.904 78.659 Q 106.504 78.659 100.754 76.109 Q 95.004 73.559 91.804 69.359 Q 85.504 61.259 85.504 51.259 Q 85.504 38.659 93.654 31.109 Q 101.804 23.559 114.004 23.559 Q 127.904 23.559 134.404 33.359 Q 137.804 38.559 137.804 44.709 Q 137.804 50.859 134.754 53.809 Q 131.704 56.759 128.004 56.759 Z M 185.304 56.759 L 161.604 56.759 Q 161.604 59.559 164.904 61.459 Q 168.204 63.359 171.504 63.359 Q 177.304 63.359 180.604 62.159 L 181.704 61.759 Q 184.104 60.659 185.704 60.659 Q 188.904 60.659 191.204 65.159 Q 192.504 67.859 192.504 69.759 A 7.932 7.932 0 0 1 185.623 77.001 Q 181.214 78.4 173.98 78.619 A 91.989 91.989 0 0 1 171.204 78.659 Q 163.804 78.659 158.054 76.109 Q 152.304 73.559 149.104 69.359 Q 142.804 61.259 142.804 51.259 Q 142.804 38.659 150.954 31.109 Q 159.104 23.559 171.304 23.559 Q 185.204 23.559 191.704 33.359 Q 195.104 38.559 195.104 44.709 Q 195.104 50.859 192.054 53.809 Q 189.004 56.759 185.304 56.759 Z M 231.204 42.359 L 224.704 41.959 L 224.704 55.759 Q 224.704 58.459 225.554 59.659 Q 226.404 60.859 228.754 60.859 Q 231.104 60.859 232.354 61.009 Q 233.604 61.159 235.004 61.959 A 6.739 6.739 0 0 1 237.295 68 A 23.598 23.598 0 0 1 237.304 68.659 A 10.049 10.049 0 0 1 235.455 75.662 A 3.554 3.554 0 0 1 234.504 76.359 Q 233.004 77.059 231.854 77.209 Q 230.704 77.359 228.504 77.359 Q 218.104 77.359 212.704 72.659 A 17.676 17.676 0 0 1 207.463 60.417 A 39.958 39.958 0 0 1 207.304 56.759 L 207.304 41.959 Q 205.404 42.259 203.204 42.259 Q 201.004 42.259 199.554 40.559 Q 198.104 38.859 198.104 34.759 Q 198.104 30.659 198.604 28.809 Q 199.104 26.959 200.004 26.159 Q 201.604 24.859 204.004 24.859 L 207.304 25.259 L 207.304 14.959 Q 207.304 12.659 207.454 11.559 Q 207.604 10.459 208.404 9.159 A 6.672 6.672 0 0 1 214.228 6.72 A 27.043 27.043 0 0 1 216.104 6.659 A 9.103 9.103 0 0 1 223.486 9.055 A 4.43 4.43 0 0 1 224.204 10.359 Q 224.704 11.959 224.704 15.459 L 224.704 25.259 Q 229.104 24.859 231.354 24.859 Q 233.604 24.859 234.754 25.009 Q 235.904 25.159 237.404 25.959 A 6.572 6.572 0 0 1 239.94 31.784 A 26.007 26.007 0 0 1 240.004 33.659 Q 240.004 39.959 237.304 41.359 Q 235.804 42.059 234.654 42.209 Q 233.504 42.359 231.204 42.359 Z M 621.204 42.359 L 614.704 41.959 L 614.704 55.759 Q 614.704 58.459 615.554 59.659 Q 616.404 60.859 618.754 60.859 Q 621.104 60.859 622.354 61.009 Q 623.604 61.159 625.004 61.959 A 6.739 6.739 0 0 1 627.295 68 A 23.598 23.598 0 0 1 627.304 68.659 A 10.049 10.049 0 0 1 625.455 75.662 A 3.554 3.554 0 0 1 624.504 76.359 Q 623.004 77.059 621.854 77.209 Q 620.704 77.359 618.504 77.359 Q 608.104 77.359 602.704 72.659 A 17.676 17.676 0 0 1 597.463 60.417 A 39.958 39.958 0 0 1 597.304 56.759 L 597.304 41.959 Q 595.404 42.259 593.204 42.259 Q 591.004 42.259 589.554 40.559 Q 588.104 38.859 588.104 34.759 Q 588.104 30.659 588.604 28.809 Q 589.104 26.959 590.004 26.159 Q 591.604 24.859 594.004 24.859 L 597.304 25.259 L 597.304 14.959 Q 597.304 12.659 597.454 11.559 Q 597.604 10.459 598.404 9.159 A 6.672 6.672 0 0 1 604.228 6.72 A 27.043 27.043 0 0 1 606.104 6.659 A 9.103 9.103 0 0 1 613.486 9.055 A 4.43 4.43 0 0 1 614.204 10.359 Q 614.704 11.959 614.704 15.459 L 614.704 25.259 Q 619.104 24.859 621.354 24.859 Q 623.604 24.859 624.754 25.009 Q 625.904 25.159 627.404 25.959 A 6.572 6.572 0 0 1 629.94 31.784 A 26.007 26.007 0 0 1 630.004 33.659 Q 630.004 39.959 627.304 41.359 Q 625.804 42.059 624.654 42.209 Q 623.504 42.359 621.204 42.359 Z M 481.804 51.059 Q 481.804 39.059 490.204 31.259 Q 498.604 23.459 509.404 23.459 Q 520.204 23.459 528.504 31.209 Q 536.804 38.959 536.804 50.959 Q 536.804 59.259 532.504 65.709 Q 528.204 72.159 522.054 75.209 Q 515.904 78.259 509.304 78.259 Q 502.704 78.259 496.504 75.009 Q 490.304 71.759 486.054 65.409 Q 481.804 59.059 481.804 51.059 Z M 245.504 68.559 L 245.504 33.459 Q 245.504 31.159 245.654 30.009 Q 245.804 28.859 246.504 27.359 A 6.845 6.845 0 0 1 252.426 24.823 A 26.11 26.11 0 0 1 254.304 24.759 Q 259.104 24.759 261.104 26.459 Q 262.804 27.859 262.904 30.759 Q 263.004 31.759 263.004 33.659 L 263.004 68.659 Q 263.004 70.959 262.854 72.109 Q 262.704 73.259 261.904 74.759 A 6.572 6.572 0 0 1 256.079 77.296 A 26.007 26.007 0 0 1 254.204 77.359 Q 247.904 77.359 246.504 74.659 Q 245.804 73.159 245.654 72.059 Q 245.504 70.959 245.504 68.559 Z M 502.704 58.209 Q 505.904 60.659 509.204 60.659 Q 512.504 60.659 515.804 58.159 Q 519.104 55.659 519.104 50.759 Q 519.104 45.859 516.004 43.459 Q 512.904 41.059 509.304 41.059 Q 505.704 41.059 502.604 43.559 Q 499.504 46.059 499.504 50.909 Q 499.504 55.759 502.704 58.209 Z M 261.954 14.909 Q 261.204 16.359 259.304 16.959 Q 257.404 17.559 254.254 17.559 Q 251.104 17.559 249.204 16.959 Q 247.304 16.359 246.554 14.859 Q 245.804 13.359 245.654 12.209 Q 245.504 11.059 245.504 8.759 Q 245.504 6.459 245.654 5.309 Q 245.804 4.159 246.504 2.759 A 6.957 6.957 0 0 1 252.692 0.107 A 25.881 25.881 0 0 1 254.304 0.059 A 10.253 10.253 0 0 1 261.169 1.774 A 3.284 3.284 0 0 1 261.904 2.759 Q 262.704 4.259 262.854 5.409 Q 263.004 6.559 263.004 8.859 Q 263.004 11.159 262.854 12.309 Q 262.704 13.459 261.954 14.909 Z M 347.204 50.309 Q 347.204 53.559 349.754 56.159 Q 352.304 58.759 355.954 58.759 Q 359.604 58.759 362.004 56.109 Q 364.404 53.459 364.404 50.309 Q 364.404 47.159 362.104 44.409 Q 359.804 41.659 355.904 41.659 Q 352.004 41.659 349.604 44.359 Q 347.204 47.059 347.204 50.309 Z M 104.104 47.659 L 116.704 47.659 Q 120.504 47.659 120.504 44.459 Q 120.504 42.159 118.754 40.759 Q 117.004 39.359 113.754 39.359 Q 110.504 39.359 107.304 42.009 Q 104.104 44.659 104.104 47.659 Z M 161.404 47.659 L 174.004 47.659 Q 177.804 47.659 177.804 44.459 Q 177.804 42.159 176.054 40.759 Q 174.304 39.359 171.054 39.359 Q 167.804 39.359 164.604 42.009 Q 161.404 44.659 161.404 47.659 Z" />
  </defs>

  <g transform="translate(17.5,17.5)">
    <use xlink:href="#logoPath" style="stroke: rgb(var(--color-green-5)); stroke-width: 6mm;" />
    <use xlink:href="#logoPath" style="stroke: rgb(var(--color-green-2)); stroke-width: 5mm;" />
    <use xlink:href="#slashPath" style="stroke: rgb(var(--color-green-4)); stroke-width: 3mm;" />
    <use xlink:href="#logoPath" style="fill: rgb(var(--color-green-4));" />
  </g>
</svg>
