// Jest Snapshot v1, https://goo.gl/fbAQLP

exports[`EditMeetingName renders 1`] = `
<form
  className="form"
  onSubmit={[Function]}
>
  <input
    onKeyup={[Function]}
    oninput={[Function]}
    type="text"
  />
  <div
    className="placeholder"
  />
  <button
    className="icon"
    type="submit"
  >
    <svg-image-mock
      alt="t(EditMeetingName.change-alt)"
    />
  </button>
  <button
    className="icon"
    onClick={[Function]}
  >
    <svg-image-mock
      alt="t(EditMeetingName.cancel-alt)"
    />
  </button>
</form>
`;
